@str = constant [2 x i8] c"\0A\00"
@ = global i8* bitcast([2 x i8]* @str  to i8*)
@str = constant [2 x i8] c"\0A\00"
@ = global i8* bitcast([2 x i8]* @str  to i8*)
@str = constant [2 x i8] c"\0A\00"
@ = global i8* bitcast([2 x i8]* @str  to i8*)
@str = constant [2 x i8] c"\0A\00"
@ = global i8* bitcast([2 x i8]* @str  to i8*)
%Object = type { i8* }
%IO = type { i8* }
declare %Object* @Object_abort(%Object*)
declare i8* @Object_type_name(%Object*)
declare %IO* @IO_out_string(%IO*, i8*)
declare %IO* @IO_out_int(%IO*, i32 )
declare i8* @IO_in_string(%IO*)
declare i32 @IO_in_int(%IO*)
declare i32 @String_length(i8*)
declare i8* @String_concat(i8*, i8*)
declare i8* @String_substr(i8*, i32, i32 )
%Main = type { i8* }
define i32 @main() {
%_tmp_1 = bitcast %Main* null to %IO*
call %Main* @Main_main(%Main* null)
ret i32 0
}
@result = global i32 0
@a = global i32 0
define %Main* @Main_main(%Main* %m) {
%_tmp_1 = bitcast %Main* %m to %IO*
call %IO* @IO_out_int(%IO* null, i32 %soma1)
%l = load i8** @
call %IO* @IO_out_string(%IO* null, i8* %l)
store i32 392, i32* @a
%la5 = load i32* @a
call %IO* @IO_out_int(%IO* null, i32 %soma4)
%l = load i8** @
call %IO* @IO_out_string(%IO* null, i8* %l)
%la5 = load i32* @a
call %IO* @IO_out_int(%IO* null, i32 %soma6)
%l = load i8** @
call %IO* @IO_out_string(%IO* null, i8* %l)
store i32 224, i32* @a
%la8 = load i32* @a
store i32 %soma9, i32* @result
%lresult9 = load i32* @result
call %IO* @IO_out_int(%IO* null, i32 %lresult9)
%l = load i8** @
call %IO* @IO_out_string(%IO* null, i8* %l)
%la11 = load i32* @a
%la13 = load i32* @a
store i32 %soma12, i32* @a
%la12 = load i32* @a
call %IO* @IO_out_int(%IO* null, i32 %la12)
ret %Main* %m
}
